---
http_interactions:
- request:
    method: get
    uri: http://api.regalii.dev/bills
    body:
      encoding: US-ASCII
      string: ''
    headers:
      Accept-Encoding:
      - gzip;q=1.0,deflate;q=0.6,identity;q=0.3
      Accept:
      - application/vnd.regalii.v3.1+json
      User-Agent:
      - Regaliator gem v4.0.0
      Content-Type:
      - application/json
      Date:
      - Fri, 20 Jan 2017 18:26:52 GMT
      Authorization:
      - APIAuth testing:ivVHfycVUNXQ8ZR3SDNbpYwhWak=
  response:
    status:
      code: 200
      message: OK
    headers:
      X-Frame-Options:
      - SAMEORIGIN
      X-Xss-Protection:
      - 1; mode=block
      X-Content-Type-Options:
      - nosniff
      X-Pagination:
      - '{"total_entries":9205,"total_pages":93,"previous_page":null,"current_page":1,"next_page":2}'
      Content-Type:
      - application/json; charset=utf-8
      Etag:
      - W/"20651000fab4c174e3320f6ce1f2d612"
      Cache-Control:
      - max-age=0, private, must-revalidate
      X-Request-Id:
      - 38f62cee-e2a1-49de-af72-d6868fcbb047
      X-Runtime:
      - '0.140525'
      Transfer-Encoding:
      - chunked
    body:
      encoding: UTF-8
      string: '{"bills":[{"type":"bill","id":51,"biller_id":12,"account_number":"8099670883","name_on_account":null,"due_date":null,"balance":0.0,"balance_currency":null,"balance_updated_at":null,"error_code":null,"error_message":null,"status":null,"migrated_at":null,"mfa_challenges":[]},{"type":"bill","id":401,"biller_id":14,"account_number":"6463060086","name_on_account":"","due_date":null,"balance":null,"balance_currency":"RD","balance_updated_at":"2014-12-15T07:03:17Z","error_code":"R4","error_message":"Account
        number does not resolve with biller","status":null,"migrated_at":null,"mfa_challenges":[]},{"type":"bill","id":971,"biller_id":3,"account_number":"6463060086","name_on_account":null,"due_date":null,"balance":null,"balance_currency":"RD","balance_updated_at":"2014-12-15T07:03:38Z","error_code":"R2","error_message":"Invalid
        Account Number","status":null,"migrated_at":null,"mfa_challenges":[]},{"type":"bill","id":21051,"biller_id":46,"account_number":"9175009310","name_on_account":null,"due_date":null,"balance":0.0,"balance_currency":"RD","balance_updated_at":null,"error_code":null,"error_message":null,"status":null,"migrated_at":null,"mfa_challenges":[]},{"type":"bill","id":40061,"biller_id":2,"account_number":"201307330517","name_on_account":null,"due_date":null,"balance":null,"balance_currency":"RD","balance_updated_at":"2014-12-15T07:16:43Z","error_code":"R2","error_message":"Invalid
        Account Number","status":null,"migrated_at":null,"mfa_challenges":[]},{"type":"bill","id":40081,"biller_id":13,"account_number":"09072440","name_on_account":null,"due_date":null,"balance":0.0,"balance_currency":"RD","balance_updated_at":null,"error_code":null,"error_message":null,"status":null,"migrated_at":null,"mfa_challenges":[]},{"type":"bill","id":40091,"biller_id":2,"account_number":"2192685","name_on_account":null,"due_date":"2015-03-22T04:00:00Z","balance":null,"balance_currency":"RD","balance_updated_at":"2015-04-30T05:00:05Z","error_code":"R4","error_message":"Account
        number does not resolve with biller","status":null,"migrated_at":null,"mfa_challenges":[]},{"type":"bill","id":40101,"biller_id":31,"account_number":"201307330517","name_on_account":null,"due_date":null,"balance":0.0,"balance_currency":"RD","balance_updated_at":null,"error_code":null,"error_message":null,"status":null,"migrated_at":null,"mfa_challenges":[]},{"type":"bill","id":40271,"biller_id":1,"account_number":"2081497","name_on_account":"De
        Jesus                                 , Rafael Ant                    ","due_date":"2015-07-12T04:00:00Z","balance":1650.61,"balance_currency":"RD","balance_updated_at":"2015-06-21T09:00:19Z","error_code":null,"error_message":null,"status":null,"migrated_at":null,"mfa_challenges":[]},{"type":"bill","id":40281,"biller_id":1,"account_number":"5759713","name_on_account":"Ortiz  ,
        Adriano","due_date":"2015-07-08T04:00:00Z","balance":1805.77,"balance_currency":"RD","balance_updated_at":"2015-06-21T09:00:17Z","error_code":null,"error_message":null,"status":null,"migrated_at":null,"mfa_challenges":[]},{"type":"bill","id":41011,"biller_id":6,"account_number":"8095648896","name_on_account":"Leonarda  Arias","due_date":"2015-04-20T04:00:00Z","balance":1990.49,"balance_currency":"RD","balance_updated_at":"2015-04-16T05:00:11Z","error_code":null,"error_message":null,"status":null,"migrated_at":null,"mfa_challenges":[]},{"type":"bill","id":43421,"biller_id":13,"account_number":"7778787773","name_on_account":null,"due_date":null,"balance":0.0,"balance_currency":"RD","balance_updated_at":null,"error_code":null,"error_message":null,"status":null,"migrated_at":null,"mfa_challenges":[]},{"type":"bill","id":46061,"biller_id":3,"account_number":"2260244","name_on_account":null,"due_date":"2014-05-03T06:24:52Z","balance":null,"balance_currency":"RD","balance_updated_at":"2014-12-15T07:19:36Z","error_code":"R2","error_message":"Invalid
        Account Number","status":null,"migrated_at":null,"mfa_challenges":[]},{"type":"bill","id":46561,"biller_id":11,"account_number":"8493534779","name_on_account":null,"due_date":null,"balance":0.0,"balance_currency":null,"balance_updated_at":null,"error_code":null,"error_message":null,"status":null,"migrated_at":null,"mfa_challenges":[]},{"type":"bill","id":47111,"biller_id":10,"account_number":"8096322133","name_on_account":null,"due_date":null,"balance":0.0,"balance_currency":null,"balance_updated_at":null,"error_code":null,"error_message":null,"status":null,"migrated_at":null,"mfa_challenges":[]},{"type":"bill","id":47811,"biller_id":11,"account_number":"8293477998","name_on_account":null,"due_date":null,"balance":0.0,"balance_currency":null,"balance_updated_at":null,"error_code":null,"error_message":null,"status":null,"migrated_at":null,"mfa_challenges":[]},{"type":"bill","id":47841,"biller_id":11,"account_number":"8297780009","name_on_account":null,"due_date":null,"balance":0.0,"balance_currency":null,"balance_updated_at":null,"error_code":null,"error_message":null,"status":null,"migrated_at":null,"mfa_challenges":[]},{"type":"bill","id":49981,"biller_id":12,"account_number":"8099898115","name_on_account":null,"due_date":null,"balance":0.0,"balance_currency":null,"balance_updated_at":null,"error_code":null,"error_message":null,"status":null,"migrated_at":null,"mfa_challenges":[]},{"type":"bill","id":50091,"biller_id":11,"account_number":"8092358247","name_on_account":null,"due_date":null,"balance":0.0,"balance_currency":null,"balance_updated_at":null,"error_code":null,"error_message":null,"status":null,"migrated_at":null,"mfa_challenges":[]},{"type":"bill","id":50431,"biller_id":11,"account_number":"8093778609","name_on_account":null,"due_date":null,"balance":0.0,"balance_currency":null,"balance_updated_at":null,"error_code":null,"error_message":null,"status":null,"migrated_at":null,"mfa_challenges":[]},{"type":"bill","id":50461,"biller_id":12,"account_number":"8496353421","name_on_account":null,"due_date":null,"balance":0.0,"balance_currency":null,"balance_updated_at":null,"error_code":null,"error_message":null,"status":null,"migrated_at":null,"mfa_challenges":[]},{"type":"bill","id":50931,"biller_id":11,"account_number":"8094262419","name_on_account":null,"due_date":null,"balance":0.0,"balance_currency":null,"balance_updated_at":null,"error_code":null,"error_message":null,"status":null,"migrated_at":null,"mfa_challenges":[]},{"type":"bill","id":51181,"biller_id":11,"account_number":"8095126909","name_on_account":null,"due_date":null,"balance":0.0,"balance_currency":null,"balance_updated_at":null,"error_code":null,"error_message":null,"status":null,"migrated_at":null,"mfa_challenges":[]},{"type":"bill","id":51321,"biller_id":11,"account_number":"8293492152","name_on_account":null,"due_date":null,"balance":0.0,"balance_currency":null,"balance_updated_at":null,"error_code":null,"error_message":null,"status":null,"migrated_at":null,"mfa_challenges":[]},{"type":"bill","id":53191,"biller_id":11,"account_number":"8299581839","name_on_account":null,"due_date":null,"balance":0.0,"balance_currency":null,"balance_updated_at":null,"error_code":null,"error_message":null,"status":null,"migrated_at":null,"mfa_challenges":[]},{"type":"bill","id":53201,"biller_id":12,"account_number":"8292816096","name_on_account":null,"due_date":null,"balance":0.0,"balance_currency":null,"balance_updated_at":null,"error_code":null,"error_message":null,"status":null,"migrated_at":null,"mfa_challenges":[]},{"type":"bill","id":53291,"biller_id":11,"account_number":"8294283703","name_on_account":null,"due_date":null,"balance":0.0,"balance_currency":null,"balance_updated_at":null,"error_code":null,"error_message":null,"status":null,"migrated_at":null,"mfa_challenges":[]},{"type":"bill","id":53341,"biller_id":12,"account_number":"8298705439","name_on_account":null,"due_date":null,"balance":0.0,"balance_currency":null,"balance_updated_at":null,"error_code":null,"error_message":null,"status":null,"migrated_at":null,"mfa_challenges":[]},{"type":"bill","id":53351,"biller_id":10,"account_number":"8093483953","name_on_account":null,"due_date":null,"balance":0.0,"balance_currency":null,"balance_updated_at":null,"error_code":null,"error_message":null,"status":null,"migrated_at":null,"mfa_challenges":[]},{"type":"bill","id":54511,"biller_id":25,"account_number":"8297812723","name_on_account":"Ana  Arias
        Cedano              ","due_date":"2015-06-11T04:00:00Z","balance":1098.5,"balance_currency":"RD","balance_updated_at":"2015-06-21T09:00:18Z","error_code":null,"error_message":null,"status":null,"migrated_at":null,"mfa_challenges":[]},{"type":"bill","id":55721,"biller_id":11,"account_number":"8093945342","name_on_account":null,"due_date":null,"balance":0.0,"balance_currency":null,"balance_updated_at":null,"error_code":null,"error_message":null,"status":null,"migrated_at":null,"mfa_challenges":[]},{"type":"bill","id":55791,"biller_id":9,"account_number":"8294090402","name_on_account":null,"due_date":null,"balance":0.0,"balance_currency":null,"balance_updated_at":null,"error_code":null,"error_message":null,"status":null,"migrated_at":null,"mfa_challenges":[]},{"type":"bill","id":58091,"biller_id":12,"account_number":"8299388881","name_on_account":null,"due_date":null,"balance":0.0,"balance_currency":null,"balance_updated_at":null,"error_code":null,"error_message":null,"status":null,"migrated_at":null,"mfa_challenges":[]},{"type":"bill","id":58131,"biller_id":11,"account_number":"8293302578","name_on_account":null,"due_date":null,"balance":0.0,"balance_currency":null,"balance_updated_at":null,"error_code":null,"error_message":null,"status":null,"migrated_at":null,"mfa_challenges":[]},{"type":"bill","id":58371,"biller_id":11,"account_number":"8496508148","name_on_account":null,"due_date":null,"balance":0.0,"balance_currency":null,"balance_updated_at":null,"error_code":null,"error_message":null,"status":null,"migrated_at":null,"mfa_challenges":[]},{"type":"bill","id":58391,"biller_id":7,"account_number":"8095366172","name_on_account":"Tempora  Rosario
        Corporan      ","due_date":"2015-06-11T04:00:00Z","balance":1787.87,"balance_currency":"RD","balance_updated_at":"2015-06-21T09:00:11Z","error_code":null,"error_message":null,"status":null,"migrated_at":null,"mfa_challenges":[]},{"type":"bill","id":58631,"biller_id":11,"account_number":"8494017411","name_on_account":null,"due_date":null,"balance":0.0,"balance_currency":null,"balance_updated_at":null,"error_code":null,"error_message":null,"status":null,"migrated_at":null,"mfa_challenges":[]},{"type":"bill","id":59761,"biller_id":11,"account_number":"8293671265","name_on_account":null,"due_date":null,"balance":0.0,"balance_currency":null,"balance_updated_at":null,"error_code":null,"error_message":null,"status":null,"migrated_at":null,"mfa_challenges":[]},{"type":"bill","id":59921,"biller_id":12,"account_number":"8297190928","name_on_account":null,"due_date":null,"balance":0.0,"balance_currency":null,"balance_updated_at":null,"error_code":null,"error_message":null,"status":null,"migrated_at":null,"mfa_challenges":[]},{"type":"bill","id":60681,"biller_id":22,"account_number":"8092379263","name_on_account":"Henriquez
        Antigua, Josefina","due_date":null,"balance":null,"balance_currency":"RD","balance_updated_at":"2015-04-30T05:00:33Z","error_code":"R4","error_message":"Account
        number does not resolve with biller","status":null,"migrated_at":null,"mfa_challenges":[]},{"type":"bill","id":61631,"biller_id":11,"account_number":"8098362964","name_on_account":null,"due_date":null,"balance":0.0,"balance_currency":null,"balance_updated_at":null,"error_code":null,"error_message":null,"status":null,"migrated_at":null,"mfa_challenges":[]},{"type":"bill","id":61761,"biller_id":12,"account_number":"8099635426","name_on_account":null,"due_date":null,"balance":0.0,"balance_currency":null,"balance_updated_at":null,"error_code":null,"error_message":null,"status":null,"migrated_at":null,"mfa_challenges":[]},{"type":"bill","id":62491,"biller_id":12,"account_number":"8295614253","name_on_account":null,"due_date":null,"balance":0.0,"balance_currency":null,"balance_updated_at":null,"error_code":null,"error_message":null,"status":null,"migrated_at":null,"mfa_challenges":[]},{"type":"bill","id":63531,"biller_id":11,"account_number":"8097428961","name_on_account":null,"due_date":null,"balance":0.0,"balance_currency":null,"balance_updated_at":null,"error_code":null,"error_message":null,"status":null,"migrated_at":null,"mfa_challenges":[]},{"type":"bill","id":63741,"biller_id":11,"account_number":"8097728684","name_on_account":null,"due_date":null,"balance":0.0,"balance_currency":null,"balance_updated_at":null,"error_code":null,"error_message":null,"status":null,"migrated_at":null,"mfa_challenges":[]},{"type":"bill","id":64791,"biller_id":13,"account_number":"197417","name_on_account":"acueducto","due_date":null,"balance":0.0,"balance_currency":"RD","balance_updated_at":null,"error_code":null,"error_message":null,"status":null,"migrated_at":null,"mfa_challenges":[]},{"type":"bill","id":64801,"biller_id":7,"account_number":"8095265667","name_on_account":"Matilde  De
        Los Santos         ","due_date":"2015-06-26T04:00:00Z","balance":1534.87,"balance_currency":"RD","balance_updated_at":"2015-06-21T09:00:12Z","error_code":null,"error_message":null,"status":null,"migrated_at":null,"mfa_challenges":[]},{"type":"bill","id":64821,"biller_id":23,"account_number":"8492546688","name_on_account":null,"due_date":"2014-12-22T04:00:00Z","balance":null,"balance_currency":"RD","balance_updated_at":"2015-04-30T05:00:37Z","error_code":"R4","error_message":"Account
        number does not resolve with biller","status":null,"migrated_at":null,"mfa_challenges":[]},{"type":"bill","id":64951,"biller_id":12,"account_number":"8098636553","name_on_account":null,"due_date":null,"balance":0.0,"balance_currency":null,"balance_updated_at":null,"error_code":null,"error_message":null,"status":null,"migrated_at":null,"mfa_challenges":[]},{"type":"bill","id":65561,"biller_id":2,"account_number":"8372923","name_on_account":"Jhoan
        Rafael Cruz ","due_date":"2015-03-08T04:00:00Z","balance":null,"balance_currency":"RD","balance_updated_at":"2015-03-02T06:00:59Z","error_code":"R2","error_message":"Invalid
        Account Number","status":null,"migrated_at":null,"mfa_challenges":[]},{"type":"bill","id":65801,"biller_id":11,"account_number":"8098397978","name_on_account":null,"due_date":null,"balance":0.0,"balance_currency":null,"balance_updated_at":null,"error_code":null,"error_message":null,"status":null,"migrated_at":null,"mfa_challenges":[]},{"type":"bill","id":65991,"biller_id":11,"account_number":"8299638528","name_on_account":null,"due_date":null,"balance":0.0,"balance_currency":null,"balance_updated_at":null,"error_code":null,"error_message":null,"status":null,"migrated_at":null,"mfa_challenges":[]},{"type":"bill","id":66841,"biller_id":11,"account_number":"8098121324","name_on_account":null,"due_date":null,"balance":0.0,"balance_currency":null,"balance_updated_at":null,"error_code":null,"error_message":null,"status":null,"migrated_at":null,"mfa_challenges":[]},{"type":"bill","id":67371,"biller_id":61,"account_number":"9173460628","name_on_account":null,"due_date":null,"balance":0.0,"balance_currency":"RD","balance_updated_at":null,"error_code":null,"error_message":null,"status":null,"migrated_at":null,"mfa_challenges":[]},{"type":"bill","id":67391,"biller_id":11,"account_number":"8296461544","name_on_account":null,"due_date":null,"balance":0.0,"balance_currency":null,"balance_updated_at":null,"error_code":null,"error_message":null,"status":null,"migrated_at":null,"mfa_challenges":[]},{"type":"bill","id":67401,"biller_id":12,"account_number":"8296405237","name_on_account":null,"due_date":null,"balance":0.0,"balance_currency":null,"balance_updated_at":null,"error_code":null,"error_message":null,"status":null,"migrated_at":null,"mfa_challenges":[]},{"type":"bill","id":67411,"biller_id":11,"account_number":"8298352748","name_on_account":null,"due_date":null,"balance":0.0,"balance_currency":null,"balance_updated_at":null,"error_code":null,"error_message":null,"status":null,"migrated_at":null,"mfa_challenges":[]},{"type":"bill","id":68341,"biller_id":11,"account_number":"8092982070","name_on_account":null,"due_date":null,"balance":0.0,"balance_currency":null,"balance_updated_at":null,"error_code":null,"error_message":null,"status":null,"migrated_at":null,"mfa_challenges":[]},{"type":"bill","id":68361,"biller_id":12,"account_number":"8299940613","name_on_account":null,"due_date":null,"balance":0.0,"balance_currency":null,"balance_updated_at":null,"error_code":null,"error_message":null,"status":null,"migrated_at":null,"mfa_challenges":[]},{"type":"bill","id":68441,"biller_id":11,"account_number":"8293151510","name_on_account":null,"due_date":null,"balance":0.0,"balance_currency":null,"balance_updated_at":null,"error_code":null,"error_message":null,"status":null,"migrated_at":null,"mfa_challenges":[]},{"type":"bill","id":68461,"biller_id":11,"account_number":"8293559910","name_on_account":null,"due_date":null,"balance":0.0,"balance_currency":null,"balance_updated_at":null,"error_code":null,"error_message":null,"status":null,"migrated_at":null,"mfa_challenges":[]},{"type":"bill","id":68491,"biller_id":11,"account_number":"8496540410","name_on_account":null,"due_date":null,"balance":0.0,"balance_currency":null,"balance_updated_at":null,"error_code":null,"error_message":null,"status":null,"migrated_at":null,"mfa_challenges":[]},{"type":"bill","id":68511,"biller_id":22,"account_number":"8092778671","name_on_account":"Nu?Ez
        Gil, Nellis Francisca","due_date":"2015-05-10T05:46:14Z","balance":null,"balance_currency":"RD","balance_updated_at":"2015-04-30T05:00:47Z","error_code":"R4","error_message":"Account
        number does not resolve with biller","status":null,"migrated_at":null,"mfa_challenges":[]},{"type":"bill","id":68671,"biller_id":11,"account_number":"8295254554","name_on_account":null,"due_date":null,"balance":0.0,"balance_currency":null,"balance_updated_at":null,"error_code":null,"error_message":null,"status":null,"migrated_at":null,"mfa_challenges":[]},{"type":"bill","id":68691,"biller_id":11,"account_number":"8095055086","name_on_account":null,"due_date":null,"balance":0.0,"balance_currency":null,"balance_updated_at":null,"error_code":null,"error_message":null,"status":null,"migrated_at":null,"mfa_challenges":[]},{"type":"bill","id":68921,"biller_id":12,"account_number":"8299071261","name_on_account":null,"due_date":null,"balance":0.0,"balance_currency":null,"balance_updated_at":null,"error_code":null,"error_message":null,"status":null,"migrated_at":null,"mfa_challenges":[]},{"type":"bill","id":68931,"biller_id":12,"account_number":"8096094655","name_on_account":null,"due_date":null,"balance":0.0,"balance_currency":null,"balance_updated_at":null,"error_code":null,"error_message":null,"status":null,"migrated_at":null,"mfa_challenges":[]},{"type":"bill","id":69001,"biller_id":12,"account_number":"8294010427","name_on_account":null,"due_date":null,"balance":0.0,"balance_currency":null,"balance_updated_at":null,"error_code":null,"error_message":null,"status":null,"migrated_at":null,"mfa_challenges":[]},{"type":"bill","id":69011,"biller_id":11,"account_number":"8292500469","name_on_account":null,"due_date":null,"balance":0.0,"balance_currency":null,"balance_updated_at":null,"error_code":null,"error_message":null,"status":null,"migrated_at":null,"mfa_challenges":[]},{"type":"bill","id":69081,"biller_id":11,"account_number":"8098236485","name_on_account":null,"due_date":null,"balance":0.0,"balance_currency":null,"balance_updated_at":null,"error_code":null,"error_message":null,"status":null,"migrated_at":null,"mfa_challenges":[]},{"type":"bill","id":69641,"biller_id":12,"account_number":"8296772300","name_on_account":null,"due_date":null,"balance":0.0,"balance_currency":null,"balance_updated_at":null,"error_code":null,"error_message":null,"status":null,"migrated_at":null,"mfa_challenges":[]},{"type":"bill","id":70311,"biller_id":46,"account_number":"8296490707","name_on_account":null,"due_date":null,"balance":0.0,"balance_currency":"RD","balance_updated_at":null,"error_code":null,"error_message":null,"status":null,"migrated_at":null,"mfa_challenges":[]},{"type":"bill","id":70991,"biller_id":46,"account_number":"8090989080","name_on_account":null,"due_date":null,"balance":0.0,"balance_currency":"RD","balance_updated_at":null,"error_code":null,"error_message":null,"status":null,"migrated_at":null,"mfa_challenges":[]},{"type":"bill","id":71111,"biller_id":11,"account_number":"8095174220","name_on_account":null,"due_date":null,"balance":0.0,"balance_currency":null,"balance_updated_at":null,"error_code":null,"error_message":null,"status":null,"migrated_at":null,"mfa_challenges":[]},{"type":"bill","id":71351,"biller_id":11,"account_number":"8297630930","name_on_account":null,"due_date":null,"balance":0.0,"balance_currency":null,"balance_updated_at":null,"error_code":null,"error_message":null,"status":null,"migrated_at":null,"mfa_challenges":[]},{"type":"bill","id":72171,"biller_id":12,"account_number":"8099183165","name_on_account":null,"due_date":null,"balance":0.0,"balance_currency":null,"balance_updated_at":null,"error_code":null,"error_message":null,"status":null,"migrated_at":null,"mfa_challenges":[]},{"type":"bill","id":72191,"biller_id":12,"account_number":"8098499536","name_on_account":null,"due_date":null,"balance":0.0,"balance_currency":null,"balance_updated_at":null,"error_code":null,"error_message":null,"status":null,"migrated_at":null,"mfa_challenges":[]},{"type":"bill","id":72201,"biller_id":12,"account_number":"8296339298","name_on_account":null,"due_date":null,"balance":0.0,"balance_currency":null,"balance_updated_at":null,"error_code":null,"error_message":null,"status":null,"migrated_at":null,"mfa_challenges":[]},{"type":"bill","id":72461,"biller_id":11,"account_number":"8299776480","name_on_account":null,"due_date":null,"balance":0.0,"balance_currency":null,"balance_updated_at":null,"error_code":null,"error_message":null,"status":null,"migrated_at":null,"mfa_challenges":[]},{"type":"bill","id":73921,"biller_id":23,"account_number":"8295847222","name_on_account":null,"due_date":"2015-01-23T04:00:00Z","balance":null,"balance_currency":"RD","balance_updated_at":"2015-04-30T05:00:54Z","error_code":"R4","error_message":"Account
        number does not resolve with biller","status":null,"migrated_at":null,"mfa_challenges":[]},{"type":"bill","id":74031,"biller_id":11,"account_number":"8297678232","name_on_account":null,"due_date":null,"balance":0.0,"balance_currency":null,"balance_updated_at":null,"error_code":null,"error_message":null,"status":null,"migrated_at":null,"mfa_challenges":[]},{"type":"bill","id":74091,"biller_id":11,"account_number":"8094631949","name_on_account":null,"due_date":null,"balance":0.0,"balance_currency":null,"balance_updated_at":null,"error_code":null,"error_message":null,"status":null,"migrated_at":null,"mfa_challenges":[]},{"type":"bill","id":74161,"biller_id":12,"account_number":"8096606289","name_on_account":null,"due_date":null,"balance":0.0,"balance_currency":null,"balance_updated_at":null,"error_code":null,"error_message":null,"status":null,"migrated_at":null,"mfa_challenges":[]},{"type":"bill","id":74361,"biller_id":11,"account_number":"8092034995","name_on_account":null,"due_date":null,"balance":0.0,"balance_currency":null,"balance_updated_at":null,"error_code":null,"error_message":null,"status":null,"migrated_at":null,"mfa_challenges":[]},{"type":"bill","id":74451,"biller_id":11,"account_number":"8493303917","name_on_account":null,"due_date":null,"balance":0.0,"balance_currency":null,"balance_updated_at":null,"error_code":null,"error_message":null,"status":null,"migrated_at":null,"mfa_challenges":[]},{"type":"bill","id":75091,"biller_id":11,"account_number":"8092995671","name_on_account":null,"due_date":null,"balance":0.0,"balance_currency":null,"balance_updated_at":null,"error_code":null,"error_message":null,"status":null,"migrated_at":null,"mfa_challenges":[]},{"type":"bill","id":75401,"biller_id":11,"account_number":"8299581498","name_on_account":null,"due_date":null,"balance":0.0,"balance_currency":null,"balance_updated_at":null,"error_code":null,"error_message":null,"status":null,"migrated_at":null,"mfa_challenges":[]},{"type":"bill","id":75511,"biller_id":11,"account_number":"8096189683","name_on_account":null,"due_date":null,"balance":0.0,"balance_currency":null,"balance_updated_at":null,"error_code":null,"error_message":null,"status":null,"migrated_at":null,"mfa_challenges":[]},{"type":"bill","id":75541,"biller_id":12,"account_number":"8292626150","name_on_account":null,"due_date":null,"balance":0.0,"balance_currency":null,"balance_updated_at":null,"error_code":null,"error_message":null,"status":null,"migrated_at":null,"mfa_challenges":[]},{"type":"bill","id":75721,"biller_id":22,"account_number":"8095920247","name_on_account":null,"due_date":null,"balance":null,"balance_currency":"RD","balance_updated_at":"2014-12-15T07:37:13Z","error_code":"R2","error_message":"Invalid
        Account Number","status":null,"migrated_at":null,"mfa_challenges":[]},{"type":"bill","id":75921,"biller_id":11,"account_number":"8292915901","name_on_account":null,"due_date":null,"balance":0.0,"balance_currency":null,"balance_updated_at":null,"error_code":null,"error_message":null,"status":null,"migrated_at":null,"mfa_challenges":[]},{"type":"bill","id":76211,"biller_id":12,"account_number":"8096131125","name_on_account":null,"due_date":null,"balance":0.0,"balance_currency":null,"balance_updated_at":null,"error_code":null,"error_message":null,"status":null,"migrated_at":null,"mfa_challenges":[]},{"type":"bill","id":77201,"biller_id":11,"account_number":"8296981687","name_on_account":null,"due_date":null,"balance":0.0,"balance_currency":null,"balance_updated_at":null,"error_code":null,"error_message":null,"status":null,"migrated_at":null,"mfa_challenges":[]},{"type":"bill","id":77481,"biller_id":11,"account_number":"8292661380","name_on_account":null,"due_date":null,"balance":0.0,"balance_currency":null,"balance_updated_at":null,"error_code":null,"error_message":null,"status":null,"migrated_at":null,"mfa_challenges":[]},{"type":"bill","id":77761,"biller_id":46,"account_number":"8296490707","name_on_account":null,"due_date":null,"balance":0.0,"balance_currency":"RD","balance_updated_at":null,"error_code":null,"error_message":null,"status":null,"migrated_at":null,"mfa_challenges":[]},{"type":"bill","id":77781,"biller_id":31,"account_number":"9999","name_on_account":null,"due_date":null,"balance":0.0,"balance_currency":"RD","balance_updated_at":null,"error_code":null,"error_message":null,"status":null,"migrated_at":null,"mfa_challenges":[]},{"type":"bill","id":78501,"biller_id":12,"account_number":"8099062369","name_on_account":null,"due_date":null,"balance":0.0,"balance_currency":null,"balance_updated_at":null,"error_code":null,"error_message":null,"status":null,"migrated_at":null,"mfa_challenges":[]},{"type":"bill","id":78511,"biller_id":12,"account_number":"8295784867","name_on_account":null,"due_date":null,"balance":0.0,"balance_currency":null,"balance_updated_at":null,"error_code":null,"error_message":null,"status":null,"migrated_at":null,"mfa_challenges":[]},{"type":"bill","id":78661,"biller_id":11,"account_number":"8292090160","name_on_account":null,"due_date":null,"balance":0.0,"balance_currency":null,"balance_updated_at":null,"error_code":null,"error_message":null,"status":null,"migrated_at":null,"mfa_challenges":[]},{"type":"bill","id":78671,"biller_id":11,"account_number":"8493605163","name_on_account":null,"due_date":null,"balance":0.0,"balance_currency":null,"balance_updated_at":null,"error_code":null,"error_message":null,"status":null,"migrated_at":null,"mfa_challenges":[]}]}'
    http_version: 
  recorded_at: Fri, 20 Jan 2017 18:26:52 GMT
recorded_with: VCR 2.9.3
