---
http_interactions:
- request:
    method: get
    uri: http://apix.regalii.dev/transactions
    body:
      encoding: US-ASCII
      string: ''
    headers:
      Accept-Encoding:
      - gzip;q=1.0,deflate;q=0.6,identity;q=0.3
      Accept:
      - application/vnd.regalii.v3.2+json
      User-Agent:
      - Regaliator gem v4.0.0
      Content-Type:
      - application/json
      Date:
      - Fri, 20 Jan 2017 18:13:46 GMT
      Authorization:
      - APIAuth testing:Y2zyFn1MM0761BQcOoZLQ+a77QQ=
  response:
    status:
      code: 200
      message: OK
    headers:
      X-Frame-Options:
      - SAMEORIGIN
      X-Xss-Protection:
      - 1; mode=block
      X-Content-Type-Options:
      - nosniff
      X-Pagination:
      - '{"total_entries":5250,"total_pages":53,"previous_page":null,"current_page":1,"next_page":2}'
      Content-Type:
      - application/json; charset=utf-8
      Etag:
      - W/"68727af925ab7a258cf7a17276ed4cd3"
      Cache-Control:
      - max-age=0, private, must-revalidate
      X-Request-Id:
      - e28dc319-efc8-475a-8008-df6bddc2f02a
      X-Runtime:
      - '0.285130'
      Transfer-Encoding:
      - chunked
    body:
      encoding: UTF-8
      string: '{"transactions":[{"type":"transaction","id":1,"amount":6.0,"amount_currency":"usd","fx_rate":42.0,"amount_usd":10.0,"transaction_fee":0.0,"total_usd":10.0,"hours_to_fulfill":0,"created_at":"2013-10-06T21:33:53Z"},{"type":"transaction","id":467261,"amount":50.0,"amount_currency":"usd","fx_rate":1.0,"amount_usd":50.0,"transaction_fee":0.0,"total_usd":50.0,"hours_to_fulfill":0,"created_at":"2014-08-22T23:59:12Z"},{"type":"transaction","id":467881,"amount":10.0,"amount_currency":"usd","fx_rate":1.0,"amount_usd":10.0,"transaction_fee":0.0,"total_usd":10.0,"hours_to_fulfill":0,"created_at":"2014-08-23T16:42:16Z"},{"type":"transaction","id":518451,"amount":50.0,"amount_currency":"usd","fx_rate":1.0,"amount_usd":50.0,"transaction_fee":0.0,"total_usd":50.0,"hours_to_fulfill":0,"created_at":"2014-09-23T17:52:50Z"},{"type":"transaction","id":518471,"amount":10.0,"amount_currency":"usd","fx_rate":1.0,"amount_usd":10.0,"transaction_fee":0.0,"total_usd":10.0,"hours_to_fulfill":0,"created_at":"2014-09-23T18:03:19Z"},{"type":"transaction","id":574301,"amount":50.0,"amount_currency":"usd","fx_rate":1.0,"amount_usd":50.0,"transaction_fee":0.0,"total_usd":50.0,"hours_to_fulfill":0,"created_at":"2014-10-24T16:04:21Z"},{"type":"transaction","id":574351,"amount":10.0,"amount_currency":"usd","fx_rate":1.0,"amount_usd":10.0,"transaction_fee":0.0,"total_usd":10.0,"hours_to_fulfill":0,"created_at":"2014-10-24T16:14:57Z"},{"type":"transaction","id":600731,"amount":5.0,"amount_currency":"usd","fx_rate":13.3083,"amount_usd":5.0,"transaction_fee":0.0,"total_usd":5.0,"hours_to_fulfill":0,"created_at":"2014-11-06T22:04:47Z"},{"type":"transaction","id":625531,"amount":10.0,"amount_currency":"usd","fx_rate":13.2788,"amount_usd":10.0,"transaction_fee":0.0,"total_usd":10.0,"hours_to_fulfill":0,"created_at":"2014-11-19T05:20:22Z"},{"type":"transaction","id":636111,"amount":50.0,"amount_currency":"usd","fx_rate":1.0,"amount_usd":50.0,"transaction_fee":0.0,"total_usd":50.0,"hours_to_fulfill":0,"created_at":"2014-11-24T14:51:47Z"},{"type":"transaction","id":636221,"amount":10.0,"amount_currency":"usd","fx_rate":1.0,"amount_usd":10.0,"transaction_fee":0.0,"total_usd":10.0,"hours_to_fulfill":0,"created_at":"2014-11-24T15:07:12Z"},{"type":"transaction","id":687971,"amount":10.0,"amount_currency":"USD","fx_rate":43.2014,"amount_usd":10.0,"transaction_fee":0.0,"total_usd":10.0,"hours_to_fulfill":0,"created_at":"2014-12-16T02:49:34Z"},{"type":"transaction","id":688021,"amount":773.5,"amount_currency":"RD","fx_rate":43.2586,"amount_usd":17.88,"transaction_fee":3.0,"total_usd":20.88,"hours_to_fulfill":0,"created_at":"2014-12-16T13:08:15Z"},{"type":"transaction","id":688031,"amount":1722.09,"amount_currency":"RD","fx_rate":43.2586,"amount_usd":39.81,"transaction_fee":3.0,"total_usd":42.81,"hours_to_fulfill":0,"created_at":"2014-12-16T13:10:10Z"},{"type":"transaction","id":688041,"amount":2288.83,"amount_currency":"RD","fx_rate":43.2586,"amount_usd":52.91,"transaction_fee":3.0,"total_usd":55.91,"hours_to_fulfill":0,"created_at":"2014-12-16T13:10:53Z"},{"type":"transaction","id":688051,"amount":1521.0,"amount_currency":"RD","fx_rate":43.2586,"amount_usd":35.16,"transaction_fee":3.0,"total_usd":38.16,"hours_to_fulfill":0,"created_at":"2014-12-16T13:11:37Z"},{"type":"transaction","id":688061,"amount":10.0,"amount_currency":"USD","fx_rate":43.2586,"amount_usd":10.0,"transaction_fee":0.0,"total_usd":10.0,"hours_to_fulfill":0,"created_at":"2014-12-16T13:12:21Z"},{"type":"transaction","id":688071,"amount":10.0,"amount_currency":"USD","fx_rate":43.2586,"amount_usd":10.0,"transaction_fee":0.0,"total_usd":10.0,"hours_to_fulfill":0,"created_at":"2014-12-16T13:13:45Z"},{"type":"transaction","id":688081,"amount":9682.23,"amount_currency":"RD","fx_rate":43.2586,"amount_usd":223.82,"transaction_fee":3.0,"total_usd":226.82,"hours_to_fulfill":0,"created_at":"2014-12-16T13:30:35Z"},{"type":"transaction","id":688471,"amount":878.73,"amount_currency":"RD","fx_rate":43.2586,"amount_usd":20.31,"transaction_fee":3.0,"total_usd":19.25,"hours_to_fulfill":0,"created_at":"2014-12-16T15:48:49Z"},{"type":"transaction","id":688501,"amount":878.73,"amount_currency":"RD","fx_rate":43.2586,"amount_usd":20.31,"transaction_fee":3.0,"total_usd":23.31,"hours_to_fulfill":0,"created_at":"2014-12-16T15:51:06Z"},{"type":"transaction","id":688651,"amount":5.0,"amount_currency":"USD","fx_rate":43.2586,"amount_usd":5.0,"transaction_fee":0.0,"total_usd":5.0,"hours_to_fulfill":0,"created_at":"2014-12-16T16:46:27Z"},{"type":"transaction","id":688661,"amount":5.0,"amount_currency":"USD","fx_rate":43.2586,"amount_usd":5.0,"transaction_fee":0.0,"total_usd":5.0,"hours_to_fulfill":0,"created_at":"2014-12-16T16:47:17Z"},{"type":"transaction","id":688761,"amount":4365.0,"amount_currency":"RD","fx_rate":43.2586,"amount_usd":100.9,"transaction_fee":3.0,"total_usd":83.72,"hours_to_fulfill":72,"created_at":"2014-12-16T17:01:36Z"},{"type":"transaction","id":688771,"amount":10.0,"amount_currency":"USD","fx_rate":43.2586,"amount_usd":10.0,"transaction_fee":0.0,"total_usd":10.0,"hours_to_fulfill":0,"created_at":"2014-12-16T17:02:03Z"},{"type":"transaction","id":688901,"amount":1867.72,"amount_currency":"RD","fx_rate":43.2586,"amount_usd":43.18,"transaction_fee":3.0,"total_usd":46.18,"hours_to_fulfill":0,"created_at":"2014-12-16T17:22:44Z"},{"type":"transaction","id":689031,"amount":317.0,"amount_currency":"GTQ","fx_rate":7.4737,"amount_usd":42.42,"transaction_fee":3.0,"total_usd":40.42,"hours_to_fulfill":0,"created_at":"2014-12-16T18:17:39Z"},{"type":"transaction","id":689441,"amount":5.0,"amount_currency":"USD","fx_rate":43.2586,"amount_usd":5.0,"transaction_fee":0.0,"total_usd":5.0,"hours_to_fulfill":0,"created_at":"2014-12-16T20:30:12Z"},{"type":"transaction","id":689451,"amount":5.0,"amount_currency":"USD","fx_rate":43.2586,"amount_usd":5.0,"transaction_fee":0.0,"total_usd":5.0,"hours_to_fulfill":0,"created_at":"2014-12-16T20:30:32Z"},{"type":"transaction","id":689461,"amount":923.13,"amount_currency":"RD","fx_rate":43.2586,"amount_usd":21.34,"transaction_fee":3.0,"total_usd":24.34,"hours_to_fulfill":0,"created_at":"2014-12-16T20:35:44Z"},{"type":"transaction","id":689671,"amount":1.0,"amount_currency":"MXN","fx_rate":14.4307,"amount_usd":0.07,"transaction_fee":3.0,"total_usd":3.07,"hours_to_fulfill":0,"created_at":"2014-12-16T21:46:54Z"},{"type":"transaction","id":689701,"amount":1.0,"amount_currency":"MXN","fx_rate":14.4307,"amount_usd":0.07,"transaction_fee":3.0,"total_usd":3.06,"hours_to_fulfill":48,"created_at":"2014-12-16T21:52:04Z"},{"type":"transaction","id":690281,"amount":459.75,"amount_currency":"RD","fx_rate":43.2586,"amount_usd":10.63,"transaction_fee":3.0,"total_usd":13.63,"hours_to_fulfill":0,"created_at":"2014-12-17T01:44:07Z"},{"type":"transaction","id":690301,"amount":6.0,"amount_currency":"USD","fx_rate":43.2586,"amount_usd":6.0,"transaction_fee":0.0,"total_usd":6.0,"hours_to_fulfill":0,"created_at":"2014-12-17T01:54:02Z"},{"type":"transaction","id":690311,"amount":1755.0,"amount_currency":"RD","fx_rate":43.2586,"amount_usd":40.57,"transaction_fee":3.0,"total_usd":38.57,"hours_to_fulfill":0,"created_at":"2014-12-17T01:54:32Z"},{"type":"transaction","id":690341,"amount":7665.42,"amount_currency":"RD","fx_rate":43.3817,"amount_usd":176.7,"transaction_fee":3.0,"total_usd":174.7,"hours_to_fulfill":0,"created_at":"2014-12-17T12:04:15Z"},{"type":"transaction","id":690351,"amount":1423.5,"amount_currency":"RD","fx_rate":43.3817,"amount_usd":32.81,"transaction_fee":3.0,"total_usd":30.81,"hours_to_fulfill":0,"created_at":"2014-12-17T12:21:12Z"},{"type":"transaction","id":690591,"amount":25.0,"amount_currency":"USD","fx_rate":43.3817,"amount_usd":25.0,"transaction_fee":0.0,"total_usd":25.0,"hours_to_fulfill":0,"created_at":"2014-12-17T15:19:34Z"},{"type":"transaction","id":690631,"amount":185.74,"amount_currency":"RD","fx_rate":43.3817,"amount_usd":4.28,"transaction_fee":3.0,"total_usd":7.28,"hours_to_fulfill":0,"created_at":"2014-12-17T15:38:23Z"},{"type":"transaction","id":690641,"amount":732.21,"amount_currency":"RD","fx_rate":43.3817,"amount_usd":16.88,"transaction_fee":3.0,"total_usd":19.88,"hours_to_fulfill":0,"created_at":"2014-12-17T15:38:46Z"},{"type":"transaction","id":690661,"amount":325.0,"amount_currency":"RD","fx_rate":43.3817,"amount_usd":7.49,"transaction_fee":3.0,"total_usd":10.49,"hours_to_fulfill":0,"created_at":"2014-12-17T15:39:00Z"},{"type":"transaction","id":690671,"amount":689.0,"amount_currency":"RD","fx_rate":43.3817,"amount_usd":15.88,"transaction_fee":3.0,"total_usd":18.88,"hours_to_fulfill":0,"created_at":"2014-12-17T15:39:40Z"},{"type":"transaction","id":690681,"amount":10.0,"amount_currency":"USD","fx_rate":43.3817,"amount_usd":10.0,"transaction_fee":0.0,"total_usd":10.0,"hours_to_fulfill":0,"created_at":"2014-12-17T15:41:07Z"},{"type":"transaction","id":690821,"amount":108.99,"amount_currency":"RD","fx_rate":43.3817,"amount_usd":2.51,"transaction_fee":3.0,"total_usd":5.51,"hours_to_fulfill":0,"created_at":"2014-12-17T16:24:29Z"},{"type":"transaction","id":690881,"amount":5.0,"amount_currency":"USD","fx_rate":43.3817,"amount_usd":5.0,"transaction_fee":0.0,"total_usd":5.0,"hours_to_fulfill":0,"created_at":"2014-12-17T16:30:33Z"},{"type":"transaction","id":691121,"amount":268.0,"amount_currency":"MXN","fx_rate":14.4648,"amount_usd":18.53,"transaction_fee":3.0,"total_usd":11.53,"hours_to_fulfill":48,"created_at":"2014-12-17T17:42:31Z"},{"type":"transaction","id":691361,"amount":689.0,"amount_currency":"RD","fx_rate":43.3817,"amount_usd":15.88,"transaction_fee":3.0,"total_usd":18.88,"hours_to_fulfill":0,"created_at":"2014-12-17T19:08:15Z"},{"type":"transaction","id":691401,"amount":5.0,"amount_currency":"USD","fx_rate":43.3817,"amount_usd":5.0,"transaction_fee":0.0,"total_usd":5.0,"hours_to_fulfill":0,"created_at":"2014-12-17T19:13:18Z"},{"type":"transaction","id":691411,"amount":5.0,"amount_currency":"USD","fx_rate":43.3817,"amount_usd":5.0,"transaction_fee":0.0,"total_usd":5.0,"hours_to_fulfill":0,"created_at":"2014-12-17T19:17:01Z"},{"type":"transaction","id":691451,"amount":330.0,"amount_currency":"GTQ","fx_rate":7.4897,"amount_usd":44.06,"transaction_fee":3.0,"total_usd":42.06,"hours_to_fulfill":0,"created_at":"2014-12-17T19:36:38Z"},{"type":"transaction","id":691521,"amount":5.0,"amount_currency":"USD","fx_rate":43.3817,"amount_usd":5.0,"transaction_fee":0.0,"total_usd":5.0,"hours_to_fulfill":0,"created_at":"2014-12-17T19:58:22Z"},{"type":"transaction","id":691591,"amount":26.37,"amount_currency":"USD","fx_rate":1.0,"amount_usd":26.37,"transaction_fee":3.0,"total_usd":29.37,"hours_to_fulfill":0,"created_at":"2014-12-17T20:15:12Z"},{"type":"transaction","id":691701,"amount":2608.4,"amount_currency":"RD","fx_rate":43.3817,"amount_usd":60.13,"transaction_fee":3.0,"total_usd":63.13,"hours_to_fulfill":0,"created_at":"2014-12-17T20:43:38Z"},{"type":"transaction","id":691711,"amount":10.0,"amount_currency":"USD","fx_rate":43.3817,"amount_usd":10.0,"transaction_fee":0.0,"total_usd":10.0,"hours_to_fulfill":0,"created_at":"2014-12-17T20:44:18Z"},{"type":"transaction","id":691902,"amount":10.0,"amount_currency":"USD","fx_rate":43.3817,"amount_usd":10.0,"transaction_fee":0.0,"total_usd":10.0,"hours_to_fulfill":0,"created_at":"2014-12-17T21:54:40Z"},{"type":"transaction","id":692232,"amount":10.0,"amount_currency":"USD","fx_rate":43.3817,"amount_usd":10.0,"transaction_fee":0.0,"total_usd":10.0,"hours_to_fulfill":0,"created_at":"2014-12-18T00:35:39Z"},{"type":"transaction","id":692312,"amount":233.31,"amount_currency":"RD","fx_rate":43.3817,"amount_usd":5.38,"transaction_fee":3.0,"total_usd":3.38,"hours_to_fulfill":0,"created_at":"2014-12-18T02:08:16Z"},{"type":"transaction","id":692322,"amount":2877.77,"amount_currency":"RD","fx_rate":43.3817,"amount_usd":66.34,"transaction_fee":3.0,"total_usd":64.34,"hours_to_fulfill":0,"created_at":"2014-12-18T02:09:11Z"},{"type":"transaction","id":692332,"amount":727.77,"amount_currency":"RD","fx_rate":43.3817,"amount_usd":16.78,"transaction_fee":3.0,"total_usd":16.42,"hours_to_fulfill":0,"created_at":"2014-12-18T02:09:31Z"},{"type":"transaction","id":692402,"amount":678.93,"amount_currency":"RD","fx_rate":43.3817,"amount_usd":15.65,"transaction_fee":3.0,"total_usd":15.52,"hours_to_fulfill":0,"created_at":"2014-12-18T03:08:59Z"},{"type":"transaction","id":692412,"amount":428.73,"amount_currency":"RD","fx_rate":43.3817,"amount_usd":9.88,"transaction_fee":3.0,"total_usd":7.88,"hours_to_fulfill":0,"created_at":"2014-12-18T03:14:44Z"},{"type":"transaction","id":692422,"amount":10.0,"amount_currency":"USD","fx_rate":43.5279,"amount_usd":10.0,"transaction_fee":0.0,"total_usd":10.0,"hours_to_fulfill":0,"created_at":"2014-12-18T11:04:08Z"},{"type":"transaction","id":692432,"amount":169.0,"amount_currency":"MXN","fx_rate":14.3059,"amount_usd":11.81,"transaction_fee":3.0,"total_usd":9.81,"hours_to_fulfill":0,"created_at":"2014-12-18T11:06:17Z"},{"type":"transaction","id":692442,"amount":1596.79,"amount_currency":"RD","fx_rate":43.5279,"amount_usd":36.68,"transaction_fee":3.0,"total_usd":39.68,"hours_to_fulfill":0,"created_at":"2014-12-18T11:06:52Z"},{"type":"transaction","id":692452,"amount":1450.0,"amount_currency":"MXN","fx_rate":14.3059,"amount_usd":101.36,"transaction_fee":3.0,"total_usd":104.36,"hours_to_fulfill":24,"created_at":"2014-12-18T13:22:20Z"},{"type":"transaction","id":692472,"amount":5.0,"amount_currency":"USD","fx_rate":7.5057,"amount_usd":5.0,"transaction_fee":0.0,"total_usd":5.0,"hours_to_fulfill":0,"created_at":"2014-12-18T14:21:22Z"},{"type":"transaction","id":692532,"amount":10.0,"amount_currency":"USD","fx_rate":43.5279,"amount_usd":10.0,"transaction_fee":0.0,"total_usd":10.0,"hours_to_fulfill":0,"created_at":"2014-12-18T14:52:01Z"},{"type":"transaction","id":692632,"amount":804.06,"amount_currency":"RD","fx_rate":43.5279,"amount_usd":18.47,"transaction_fee":3.0,"total_usd":11.47,"hours_to_fulfill":0,"created_at":"2014-12-18T15:13:06Z"},{"type":"transaction","id":692642,"amount":689.0,"amount_currency":"RD","fx_rate":43.5279,"amount_usd":15.83,"transaction_fee":3.0,"total_usd":18.83,"hours_to_fulfill":0,"created_at":"2014-12-18T15:13:25Z"},{"type":"transaction","id":692692,"amount":7.23,"amount_currency":"USD","fx_rate":1.0,"amount_usd":7.23,"transaction_fee":3.0,"total_usd":5.23,"hours_to_fulfill":0,"created_at":"2014-12-18T15:30:38Z"},{"type":"transaction","id":692702,"amount":5.0,"amount_currency":"USD","fx_rate":43.5279,"amount_usd":5.0,"transaction_fee":0.0,"total_usd":5.0,"hours_to_fulfill":0,"created_at":"2014-12-18T15:36:40Z"},{"type":"transaction","id":692712,"amount":131.0,"amount_currency":"GTQ","fx_rate":7.5057,"amount_usd":17.45,"transaction_fee":3.0,"total_usd":15.45,"hours_to_fulfill":0,"created_at":"2014-12-18T15:38:55Z"},{"type":"transaction","id":692972,"amount":10.0,"amount_currency":"USD","fx_rate":43.5279,"amount_usd":10.0,"transaction_fee":0.0,"total_usd":10.0,"hours_to_fulfill":0,"created_at":"2014-12-18T17:38:53Z"},{"type":"transaction","id":693072,"amount":5.0,"amount_currency":"USD","fx_rate":43.5279,"amount_usd":5.0,"transaction_fee":0.0,"total_usd":5.0,"hours_to_fulfill":0,"created_at":"2014-12-18T18:18:55Z"},{"type":"transaction","id":693232,"amount":775.0,"amount_currency":"GTQ","fx_rate":7.5057,"amount_usd":103.25,"transaction_fee":3.0,"total_usd":101.25,"hours_to_fulfill":0,"created_at":"2014-12-18T19:35:08Z"},{"type":"transaction","id":693982,"amount":711.58,"amount_currency":"RD","fx_rate":43.5279,"amount_usd":16.35,"transaction_fee":3.0,"total_usd":19.35,"hours_to_fulfill":0,"created_at":"2014-12-18T23:42:09Z"},{"type":"transaction","id":694002,"amount":1221.09,"amount_currency":"RD","fx_rate":43.5279,"amount_usd":28.05,"transaction_fee":3.0,"total_usd":31.05,"hours_to_fulfill":0,"created_at":"2014-12-18T23:52:19Z"},{"type":"transaction","id":694012,"amount":268.83,"amount_currency":"RD","fx_rate":43.5279,"amount_usd":6.18,"transaction_fee":3.0,"total_usd":9.18,"hours_to_fulfill":0,"created_at":"2014-12-18T23:54:04Z"},{"type":"transaction","id":694132,"amount":2875.37,"amount_currency":"RD","fx_rate":43.5279,"amount_usd":66.06,"transaction_fee":3.0,"total_usd":69.06,"hours_to_fulfill":0,"created_at":"2014-12-19T01:34:51Z"},{"type":"transaction","id":694142,"amount":1007.49,"amount_currency":"RD","fx_rate":43.5279,"amount_usd":23.15,"transaction_fee":3.0,"total_usd":26.15,"hours_to_fulfill":0,"created_at":"2014-12-19T02:03:18Z"},{"type":"transaction","id":694162,"amount":1290.42,"amount_currency":"RD","fx_rate":43.5279,"amount_usd":29.65,"transaction_fee":3.0,"total_usd":32.65,"hours_to_fulfill":0,"created_at":"2014-12-19T03:02:59Z"},{"type":"transaction","id":694172,"amount":1074.04,"amount_currency":"RD","fx_rate":43.5279,"amount_usd":24.67,"transaction_fee":3.0,"total_usd":27.67,"hours_to_fulfill":0,"created_at":"2014-12-19T03:03:23Z"},{"type":"transaction","id":694182,"amount":939.13,"amount_currency":"RD","fx_rate":43.5279,"amount_usd":21.58,"transaction_fee":3.0,"total_usd":19.58,"hours_to_fulfill":0,"created_at":"2014-12-19T03:14:45Z"},{"type":"transaction","id":694192,"amount":1074.04,"amount_currency":"RD","fx_rate":43.5279,"amount_usd":24.67,"transaction_fee":3.0,"total_usd":22.74,"hours_to_fulfill":0,"created_at":"2014-12-19T03:23:10Z"},{"type":"transaction","id":694202,"amount":429.0,"amount_currency":"MXN","fx_rate":14.29,"amount_usd":30.02,"transaction_fee":3.0,"total_usd":33.02,"hours_to_fulfill":0,"created_at":"2014-12-19T10:50:07Z"},{"type":"transaction","id":694212,"amount":199.46,"amount_currency":"RD","fx_rate":43.4413,"amount_usd":4.59,"transaction_fee":3.0,"total_usd":7.14,"hours_to_fulfill":0,"created_at":"2014-12-19T10:50:41Z"},{"type":"transaction","id":694222,"amount":325.0,"amount_currency":"RD","fx_rate":43.4413,"amount_usd":7.48,"transaction_fee":3.0,"total_usd":10.48,"hours_to_fulfill":0,"created_at":"2014-12-19T10:52:25Z"},{"type":"transaction","id":694232,"amount":689.0,"amount_currency":"RD","fx_rate":43.4413,"amount_usd":15.86,"transaction_fee":3.0,"total_usd":18.86,"hours_to_fulfill":0,"created_at":"2014-12-19T10:52:40Z"},{"type":"transaction","id":694242,"amount":1611.32,"amount_currency":"RD","fx_rate":43.4413,"amount_usd":37.09,"transaction_fee":3.0,"total_usd":40.09,"hours_to_fulfill":0,"created_at":"2014-12-19T10:52:55Z"},{"type":"transaction","id":694252,"amount":20.0,"amount_currency":"USD","fx_rate":43.4413,"amount_usd":20.0,"transaction_fee":0.0,"total_usd":20.0,"hours_to_fulfill":0,"created_at":"2014-12-19T13:37:43Z"},{"type":"transaction","id":694282,"amount":294.0,"amount_currency":"MXN","fx_rate":14.29,"amount_usd":20.57,"transaction_fee":3.0,"total_usd":23.57,"hours_to_fulfill":48,"created_at":"2014-12-19T14:00:15Z"},{"type":"transaction","id":694322,"amount":732.6,"amount_currency":"RD","fx_rate":43.4413,"amount_usd":16.86,"transaction_fee":3.0,"total_usd":16.49,"hours_to_fulfill":0,"created_at":"2014-12-19T14:40:32Z"},{"type":"transaction","id":694332,"amount":816.77,"amount_currency":"RD","fx_rate":43.4413,"amount_usd":18.8,"transaction_fee":3.0,"total_usd":21.8,"hours_to_fulfill":0,"created_at":"2014-12-19T14:41:01Z"},{"type":"transaction","id":694942,"amount":5.0,"amount_currency":"USD","fx_rate":43.4413,"amount_usd":5.0,"transaction_fee":0.0,"total_usd":5.0,"hours_to_fulfill":0,"created_at":"2014-12-19T17:13:49Z"},{"type":"transaction","id":694962,"amount":686.13,"amount_currency":"RD","fx_rate":43.4413,"amount_usd":15.79,"transaction_fee":3.0,"total_usd":13.79,"hours_to_fulfill":0,"created_at":"2014-12-19T17:17:09Z"},{"type":"transaction","id":695262,"amount":1949.06,"amount_currency":"RD","fx_rate":43.4413,"amount_usd":44.87,"transaction_fee":3.0,"total_usd":42.87,"hours_to_fulfill":0,"created_at":"2014-12-19T18:18:06Z"},{"type":"transaction","id":695322,"amount":689.0,"amount_currency":"RD","fx_rate":43.4413,"amount_usd":15.86,"transaction_fee":3.0,"total_usd":18.86,"hours_to_fulfill":0,"created_at":"2014-12-19T18:43:06Z"},{"type":"transaction","id":695432,"amount":5.0,"amount_currency":"USD","fx_rate":43.4413,"amount_usd":5.0,"transaction_fee":0.0,"total_usd":5.0,"hours_to_fulfill":0,"created_at":"2014-12-19T19:26:45Z"},{"type":"transaction","id":695592,"amount":1451.78,"amount_currency":"RD","fx_rate":43.4413,"amount_usd":33.42,"transaction_fee":3.0,"total_usd":31.42,"hours_to_fulfill":0,"created_at":"2014-12-19T20:14:23Z"},{"type":"transaction","id":696192,"amount":8000.0,"amount_currency":"RD","fx_rate":43.4413,"amount_usd":184.16,"transaction_fee":3.0,"total_usd":187.16,"hours_to_fulfill":72,"created_at":"2014-12-19T23:06:49Z"}]}'
    http_version: 
  recorded_at: Fri, 20 Jan 2017 18:13:46 GMT
recorded_with: VCR 2.9.3
